"sample"	"read_hit1_genus"	"read_hit1_genus_fraction"	"read_hit2_genus"	"read_hit2_genus_fraction"	"read_hit3_genus"	"read_hit3_genus_fraction"
"Lm_0-05_10_Lm1"	"Listeria"	0.99925	"Bacillus"	0.00019	"Staphylococcus"	1e-04
"Lm_0-05_10_Lm2"	"Listeria"	0.9993	"Bacillus"	0.00022	"Streptococcus"	9e-05
"Lm_0-05_10_Lm3"	"Listeria"	0.99811	"Bacillus"	0.00063	"Lactococcus"	0.00044
"Lm_0-05_10_Lm4"	"Listeria"	0.99921	"Candidatus Walczuchella"	0.00037	"Bacillus"	0.00019
"Lm_0-05_10_Lm5"	"Listeria"	0.99906	"Bacillus"	2e-04	"Escherichia"	0.00014
"Lm_0-05_10_Lm6"	"Listeria"	0.99927	"Xenorhabdus"	0.00025	"Clostridioides"	0.00014
"Lm_0-05_10_Lm7"	"Listeria"	0.9995	"Bacillus"	0.00024	"Staphylococcus"	0.00011
"Lm_0-05_10_Lm8"	"Listeria"	0.99933	"Bacillus"	0.00018	"Martelella"	0.00012
"Lm_0-05_20_Lm1"	"Listeria"	0.99932	"Bacillus"	0.00019	"Staphylococcus"	9e-05
"Lm_0-05_20_Lm2"	"Listeria"	0.99915	"Bacillus"	0.00027	"Clostridioides"	0.00017
"Lm_0-05_20_Lm3"	"Listeria"	0.99716	"Lactococcus"	8e-04	"Bacillus"	0.00073
"Lm_0-05_20_Lm4"	"Listeria"	0.99884	"Candidatus Walczuchella"	0.00063	"Bacillus"	0.00023
"Lm_0-05_20_Lm5"	"Listeria"	0.99903	"Escherichia"	0.00027	"Bacillus"	0.00018
"Lm_0-05_20_Lm6"	"Listeria"	0.99903	"Xenorhabdus"	0.00054	"Clostridioides"	0.00013
"Lm_0-05_20_Lm7"	"Listeria"	0.99959	"Bacillus"	0.00016	"Staphylococcus"	1e-04
"Lm_0-05_20_Lm8"	"Listeria"	0.99932	"Ramlibacter"	0.00023	"Bacillus"	0.00015
"Lm_0-05_30_Lm1"	"Listeria"	0.99923	"Leclercia"	0.00024	"Bacillus"	0.00014
"Lm_0-05_30_Lm2"	"Listeria"	0.99909	"Bacillus"	0.00028	"Clostridioides"	0.00019
"Lm_0-05_30_Lm3"	"Listeria"	0.9963	"Lactococcus"	0.00135	"Bacillus"	0.00099
"Lm_0-05_30_Lm4"	"Listeria"	0.99877	"Candidatus Walczuchella"	0.00085	"Staphylococcus"	0.00012
"Lm_0-05_30_Lm5"	"Listeria"	0.9989	"Escherichia"	0.00033	"Salmonella"	0.00019
"Lm_0-05_30_Lm6"	"Listeria"	0.99888	"Xenorhabdus"	0.00066	"Clostridioides"	0.00014
"Lm_0-05_30_Lm7"	"Listeria"	0.99959	"Bacillus"	2e-04	"Staphylococcus"	9e-05
"Lm_0-05_30_Lm8"	"Listeria"	0.99916	"Martelella"	0.00032	"Bacillus"	0.00019
"Lm_0-05_40_Lm1"	"Listeria"	0.99939	"Clostridioides"	0.00021	"Bacillus"	0.00011
"Lm_0-05_40_Lm2"	"Listeria"	0.99918	"Bacillus"	0.00021	"Clostridioides"	0.00018
"Lm_0-05_40_Lm3"	"Listeria"	0.99537	"Lactococcus"	0.00168	"Bacillus"	0.00121
"Lm_0-05_40_Lm4"	"Listeria"	0.99799	"Candidatus Walczuchella"	0.00142	"Salmonella"	0.00023
"Lm_0-05_40_Lm5"	"Listeria"	0.99893	"Escherichia"	0.00038	"Salmonella"	2e-04
"Lm_0-05_40_Lm6"	"Listeria"	0.999	"Xenorhabdus"	0.00072	"Bacillus"	1e-04
"Lm_0-05_40_Lm7"	"Listeria"	0.9997	"Bacillus"	0.00011	"Staphylococcus"	6e-05
"Lm_0-05_40_Lm8"	"Listeria"	0.9991	"Ramlibacter"	0.00044	"Bacillus"	0.00016
"Lm_0-05_50_Lm1"	"Listeria"	0.99957	"Bacillus"	9e-05	"Staphylococcus"	9e-05
"Lm_0-05_50_Lm2"	"Listeria"	0.99942	"Bacillus"	0.00021	"Streptococcus"	5e-05
"Lm_0-05_50_Lm3"	"Listeria"	0.99466	"Lactococcus"	0.00206	"Bacillus"	0.00128
"Lm_0-05_50_Lm4"	"Listeria"	0.9975	"Leclercia"	0.00197	"Salmonella"	0.00027
"Lm_0-05_50_Lm5"	"Listeria"	0.9988	"Escherichia"	0.00056	"Salmonella"	0.00024
"Lm_0-05_50_Lm6"	"Listeria"	0.99884	"Chloroflexus"	0.00095	"Staphylococcus"	7e-05
"Lm_0-05_50_Lm7"	"Listeria"	0.99968	"Bacillus"	0.00015	"Staphylococcus"	5e-05
"Lm_0-05_50_Lm8"	"Listeria"	0.99904	"Ramlibacter"	0.00056	"Bacillus"	9e-05
"Lm_0-5_10_Lm1"	"Listeria"	0.99928	"Bacillus"	0.00019	"Staphylococcus"	9e-05
"Lm_0-5_10_Lm2"	"Listeria"	0.99922	"Bacillus"	0.00027	"Staphylococcus"	9e-05
"Lm_0-5_10_Lm3"	"Listeria"	0.99894	"Bacillus"	0.00046	"Streptococcus"	0.00016
"Lm_0-5_10_Lm4"	"Listeria"	0.99955	"Bacillus"	0.00019	"Staphylococcus"	0.00011
"Lm_0-5_10_Lm5"	"Listeria"	0.99929	"Bacillus"	0.00018	"Lactococcus"	8e-05
"Lm_0-5_10_Lm6"	"Listeria"	0.99947	"Clostridioides"	0.00013	"Bacillus"	1e-04
"Lm_0-5_10_Lm7"	"Listeria"	0.99949	"Bacillus"	0.00024	"Staphylococcus"	8e-05
"Lm_0-5_10_Lm8"	"Listeria"	0.99949	"Bacillus"	2e-04	"Staphylococcus"	4e-05
"Lm_0-5_20_Lm1"	"Listeria"	0.99925	"Bacillus"	0.00015	"Staphylococcus"	1e-04
"Lm_0-5_20_Lm2"	"Listeria"	0.99921	"Bacillus"	0.00026	"Clostridioides"	0.00014
"Lm_0-5_20_Lm3"	"Listeria"	0.99907	"Bacillus"	0.00043	"Streptococcus"	0.00015
"Lm_0-5_20_Lm4"	"Listeria"	0.9995	"Bacillus"	0.00021	"Staphylococcus"	0.00012
"Lm_0-5_20_Lm5"	"Listeria"	0.9993	"Bacillus"	0.00021	"Staphylococcus"	7e-05
"Lm_0-5_20_Lm6"	"Listeria"	0.99953	"Clostridioides"	0.00013	"Bacillus"	8e-05
"Lm_0-5_20_Lm7"	"Listeria"	0.99942	"Bacillus"	0.00017	"Enterococcus"	0.00014
"Lm_0-5_20_Lm8"	"Listeria"	0.99951	"Bacillus"	0.00017	"Lactococcus"	5e-05
"Lm_0-5_30_Lm1"	"Listeria"	0.99923	"Bacillus"	2e-04	"Staphylococcus"	0.00011
"Lm_0-5_30_Lm2"	"Listeria"	0.99916	"Streptomyces"	0.00022	"Bacillus"	0.00019
"Lm_0-5_30_Lm3"	"Listeria"	0.99924	"Bacillus"	0.00035	"Streptococcus"	0.00013
"Lm_0-5_30_Lm4"	"Listeria"	0.99963	"Bacillus"	0.00015	"Staphylococcus"	8e-05
"Lm_0-5_30_Lm5"	"Listeria"	0.99939	"Bacillus"	0.00015	"Lactococcus"	7e-05
"Lm_0-5_30_Lm6"	"Listeria"	0.99954	"Bacillus"	1e-04	"Staphylococcus"	1e-04
"Lm_0-5_30_Lm7"	"Listeria"	0.99943	"Enterococcus"	0.00024	"Bacillus"	0.00015
"Lm_0-5_30_Lm8"	"Listeria"	0.99954	"Bacillus"	0.00012	"Microbulbifer"	6e-05
"Lm_0-5_40_Lm1"	"Listeria"	0.99936	"Bacillus"	0.00016	"Streptococcus"	9e-05
"Lm_0-5_40_Lm2"	"Listeria"	0.99909	"Verrucomicrobium"	0.00027	"Bacillus"	0.00024
"Lm_0-5_40_Lm3"	"Listeria"	0.9993	"Bacillus"	0.00028	"Staphylococcus"	0.00012
"Lm_0-5_40_Lm4"	"Listeria"	0.99954	"Bacillus"	0.00018	"Staphylococcus"	1e-04
"Lm_0-5_40_Lm5"	"Listeria"	0.99946	"Bacillus"	0.00012	"Leclercia"	0.00011
"Lm_0-5_40_Lm6"	"Listeria"	0.99946	"Clostridioides"	0.00011	"Bacillus"	9e-05
"Lm_0-5_40_Lm7"	"Listeria"	0.99944	"Enterococcus"	0.00027	"Bacillus"	1e-04
"Lm_0-5_40_Lm8"	"Listeria"	0.99964	"Bacillus"	0.00011	"Staphylococcus"	4e-05
"Lm_0-5_50_Lm1"	"Listeria"	0.99938	"Bacillus"	0.00013	"Streptococcus"	9e-05
"Lm_0-5_50_Lm2"	"Listeria"	0.99932	"Verrucomicrobium"	3e-04	"Bacillus"	0.00014
"Lm_0-5_50_Lm3"	"Listeria"	0.99945	"Bacillus"	0.00021	"Staphylococcus"	0.00011
"Lm_0-5_50_Lm4"	"Listeria"	0.99954	"Bacillus"	0.00011	"Staphylococcus"	7e-05
"Lm_0-5_50_Lm5"	"Listeria"	0.99954	"Bacillus"	0.00012	"Staphylococcus"	5e-05
"Lm_0-5_50_Lm6"	"Listeria"	0.99937	"Clostridioides"	0.00015	"Bacillus"	9e-05
"Lm_0-5_50_Lm7"	"Listeria"	0.99933	"Enterococcus"	0.00036	"Bacillus"	0.00012
"Lm_0-5_50_Lm8"	"Listeria"	0.99961	"Bacillus"	1e-04	"Lactobacillus"	5e-05
"Lm_5_10_Lm1"	"Listeria"	0.99926	"Bacillus"	0.00017	"Staphylococcus"	8e-05
"Lm_5_10_Lm2"	"Listeria"	0.99917	"Bacillus"	0.00028	"Clostridioides"	0.00017
"Lm_5_10_Lm3"	"Listeria"	0.99886	"Bacillus"	0.00045	"Streptococcus"	0.00017
"Lm_5_10_Lm4"	"Listeria"	0.99898	"Enterococcus"	0.00032	"Bacillus"	0.00021
"Lm_5_10_Lm5"	"Listeria"	0.99924	"Bacillus"	0.00019	"Staphylococcus"	7e-05
"Lm_5_10_Lm6"	"Listeria"	0.99919	"Bacillus"	0.00025	"Clostridioides"	0.00015
"Lm_5_10_Lm7"	"Listeria"	0.99927	"Enterococcus"	0.00027	"Bacillus"	0.00022
"Lm_5_10_Lm8"	"Listeria"	0.9991	"Lactococcus"	3e-04	"Bacillus"	0.00016
"Lm_5_20_Lm1"	"Listeria"	0.99916	"Bacillus"	0.00024	"Staphylococcus"	1e-04
"Lm_5_20_Lm2"	"Listeria"	0.99927	"Bacillus"	2e-04	"Clostridioides"	0.00014
"Lm_5_20_Lm3"	"Listeria"	0.99891	"Candidatus Walczuchella"	0.00033	"Bacillus"	0.00031
"Lm_5_20_Lm4"	"Listeria"	0.99855	"Enterococcus"	0.00055	"Lactococcus"	0.00038
"Lm_5_20_Lm5"	"Listeria"	0.99933	"Bacillus"	0.00015	"Staphylococcus"	6e-05
"Lm_5_20_Lm6"	"Listeria"	0.99881	"Bacillus"	0.00047	"Enterococcus"	0.00016
"Lm_5_20_Lm7"	"Listeria"	0.99902	"Enterococcus"	0.00052	"Bacillus"	0.00021
"Lm_5_20_Lm8"	"Listeria"	0.99858	"Lactococcus"	0.00062	"Bacillus"	0.00018
"Lm_5_30_Lm1"	"Listeria"	0.99935	"Bacillus"	0.00012	"Staphylococcus"	9e-05
"Lm_5_30_Lm2"	"Listeria"	0.99931	"Bacillus"	2e-04	"Clostridioides"	0.00013
"Lm_5_30_Lm3"	"Listeria"	0.99873	"Verrucomicrobium"	0.00044	"Bacillus"	0.00038
"Lm_5_30_Lm4"	"Listeria"	0.99785	"Enterococcus"	0.00087	"Lactococcus"	0.00062
"Lm_5_30_Lm5"	"Listeria"	0.99939	"Bacillus"	0.00017	"Lactobacillus"	9e-05
"Lm_5_30_Lm6"	"Listeria"	0.99867	"Bacillus"	0.00061	"Enterococcus"	0.00025
"Lm_5_30_Lm7"	"Listeria"	0.9988	"Enterococcus"	0.00072	"Bacillus"	0.00021
"Lm_5_30_Lm8"	"Listeria"	0.99808	"Lactococcus"	0.00091	"Lactobacillus"	0.00032
"Lm_5_40_Lm1"	"Listeria"	0.99931	"Bacillus"	0.00016	"Exiguobacterium"	1e-04
"Lm_5_40_Lm2"	"Listeria"	0.99962	"Bacillus"	0.00012	"Streptococcus"	6e-05
"Lm_5_40_Lm3"	"Listeria"	0.99866	"Kosakonia"	0.00055	"Bacillus"	0.00036
"Lm_5_40_Lm4"	"Listeria"	0.99747	"Enterococcus"	0.00111	"Lactococcus"	8e-04
"Lm_5_40_Lm5"	"Listeria"	0.9994	"Bacillus"	0.00014	"Staphylococcus"	7e-05
"Lm_5_40_Lm6"	"Listeria"	0.99825	"Bacillus"	0.00074	"Enterococcus"	0.00038
"Lm_5_40_Lm7"	"Listeria"	0.99881	"Enterococcus"	0.00087	"Bacillus"	0.00013
"Lm_5_40_Lm8"	"Listeria"	0.99779	"Lactococcus"	0.00104	"Lactobacillus"	0.00042
"Lm_5_50_Lm1"	"Listeria"	0.99944	"Exiguobacterium"	8e-05	"Altererythrobacter"	7e-05
"Lm_5_50_Lm2"	"Listeria"	0.99946	"Bacillus"	0.00022	"Lactobacillus"	7e-05
"Lm_5_50_Lm3"	"Listeria"	0.99883	"Candidatus Walczuchella"	0.00059	"Bacillus"	2e-04
"Lm_5_50_Lm4"	"Listeria"	0.99677	"Enterococcus"	0.00145	"Lactococcus"	0.00093
"Lm_5_50_Lm5"	"Listeria"	0.99953	"Lactobacillus"	9e-05	"Bacillus"	7e-05
"Lm_5_50_Lm6"	"Listeria"	0.99797	"Bacillus"	0.00094	"Enterococcus"	0.00033
"Lm_5_50_Lm7"	"Listeria"	0.99841	"Enterococcus"	0.00125	"Bacillus"	0.00013
"Lm_5_50_Lm8"	"Listeria"	0.99743	"Lactococcus"	0.00141	"Lactobacillus"	0.00052
"Lm_Ec_10_Lm1"	"Listeria"	0.8995	"Escherichia"	0.09875	"Salmonella"	0.00051
"Lm_Ec_10_Lm2"	"Listeria"	0.89878	"Escherichia"	0.09979	"Bacillus"	0.00022
"Lm_Ec_10_Lm3"	"Listeria"	0.89961	"Escherichia"	0.09754	"Salmonella"	7e-04
"Lm_Ec_10_Lm4"	"Listeria"	0.90001	"Escherichia"	0.09528	"Shigella"	0.00228
"Lm_Ec_10_Lm5"	"Listeria"	0.89822	"Escherichia"	0.10027	"Citrobacter"	0.00019
"Lm_Ec_10_Lm6"	"Listeria"	0.90707	"Escherichia"	0.08231	"Citrobacter"	0.00274
"Lm_Ec_10_Lm7"	"Listeria"	0.89909	"Escherichia"	0.09936	"Salmonella"	4e-04
"Lm_Ec_10_Lm8"	"Listeria"	0.89924	"Escherichia"	0.09841	"Salmonella"	0.00115
"Lm_Ec_20_Lm1"	"Listeria"	0.79954	"Escherichia"	0.19733	"Salmonella"	0.0012
"Lm_Ec_20_Lm2"	"Listeria"	0.7988	"Escherichia"	0.1992	"Salmonella"	0.00035
"Lm_Ec_20_Lm3"	"Listeria"	0.80062	"Escherichia"	0.19519	"Salmonella"	0.00119
"Lm_Ec_20_Lm4"	"Listeria"	0.80039	"Escherichia"	0.18965	"Shigella"	0.00502
"Lm_Ec_20_Lm5"	"Listeria"	0.79841	"Escherichia"	0.19931	"Salmonella"	0.00046
"Lm_Ec_20_Lm6"	"Listeria"	0.81265	"Escherichia"	0.16643	"Citrobacter"	0.00627
"Lm_Ec_20_Lm7"	"Listeria"	0.79891	"Escherichia"	0.19881	"Salmonella"	0.00063
"Lm_Ec_20_Lm8"	"Listeria"	0.79954	"Escherichia"	0.19736	"Salmonella"	0.00149
"Lm_Ec_30_Lm1"	"Listeria"	0.70016	"Escherichia"	0.29559	"Salmonella"	0.0017
"Lm_Ec_30_Lm2"	"Listeria"	0.69864	"Escherichia"	0.29871	"Citrobacter"	0.00048
"Lm_Ec_30_Lm3"	"Listeria"	0.70136	"Escherichia"	0.29246	"Salmonella"	0.00194
"Lm_Ec_30_Lm4"	"Listeria"	0.70058	"Escherichia"	0.28528	"Shigella"	0.0067
"Lm_Ec_30_Lm5"	"Listeria"	0.69831	"Escherichia"	0.29892	"Citrobacter"	5e-04
"Lm_Ec_30_Lm6"	"Listeria"	0.71696	"Escherichia"	0.25165	"Citrobacter"	0.00903
"Lm_Ec_30_Lm7"	"Listeria"	0.69946	"Escherichia"	0.29713	"Salmonella"	0.0011
"Lm_Ec_30_Lm8"	"Listeria"	0.69979	"Escherichia"	0.296	"Salmonella"	0.00237
"Lm_Ec_40_Lm1"	"Listeria"	0.60037	"Escherichia"	0.39503	"Salmonella"	0.00159
"Lm_Ec_40_Lm2"	"Listeria"	0.59897	"Escherichia"	0.3977	"Salmonella"	0.00086
"Lm_Ec_40_Lm3"	"Listeria"	0.60199	"Escherichia"	0.3906	"Salmonella"	0.0025
"Lm_Ec_40_Lm4"	"Listeria"	0.60084	"Escherichia"	0.38137	"Shigella"	0.00791
"Lm_Ec_40_Lm5"	"Listeria"	0.59896	"Escherichia"	0.39742	"Citrobacter"	0.00087
"Lm_Ec_40_Lm6"	"Listeria"	0.61997	"Escherichia"	0.33855	"Citrobacter"	0.0124
"Lm_Ec_40_Lm7"	"Listeria"	0.59959	"Escherichia"	0.39548	"Salmonella"	0.00154
"Lm_Ec_40_Lm8"	"Listeria"	0.60028	"Escherichia"	0.39472	"Salmonella"	0.00248
"Lm_Ec_50_Lm1"	"Listeria"	0.50067	"Escherichia"	0.49282	"Salmonella"	0.00296
"Lm_Ec_50_Lm2"	"Listeria"	0.49908	"Escherichia"	0.49688	"Salmonella"	0.00092
"Lm_Ec_50_Lm3"	"Listeria"	0.50186	"Escherichia"	0.48856	"Salmonella"	0.00303
"Lm_Ec_50_Lm4"	"Listeria"	0.50104	"Escherichia"	0.47631	"Shigella"	0.01097
"Lm_Ec_50_Lm5"	"Listeria"	0.49905	"Escherichia"	0.49653	"Citrobacter"	0.00105
"Lm_Ec_50_Lm6"	"Listeria"	0.52093	"Escherichia"	0.42615	"Citrobacter"	0.01509
"Lm_Ec_50_Lm7"	"Listeria"	0.49949	"Escherichia"	0.49505	"Salmonella"	0.00188
"Lm_Ec_50_Lm8"	"Listeria"	0.50021	"Escherichia"	0.49349	"Salmonella"	0.00337
"Lm_Se_10_Lm1"	"Listeria"	0.89897	"Salmonella"	0.10028	"Bacillus"	0.00017
"Lm_Se_10_Lm2"	"Listeria"	0.89854	"Salmonella"	0.10033	"Bacillus"	0.00025
"Lm_Se_10_Lm3"	"Listeria"	0.8984	"Salmonella"	0.10063	"Bacillus"	0.00037
"Lm_Se_10_Lm4"	"Listeria"	0.89913	"Salmonella"	0.1002	"Escherichia"	0.00021
"Lm_Se_10_Lm5"	"Listeria"	0.89807	"Salmonella"	0.10069	"Escherichia"	0.00026
"Lm_Se_10_Lm6"	"Listeria"	0.89904	"Salmonella"	0.10043	"Clostridioides"	0.00012
"Lm_Se_10_Lm7"	"Listeria"	0.89897	"Salmonella"	0.10044	"Bacillus"	2e-04
"Lm_Se_10_Lm8"	"Listeria"	0.89866	"Salmonella"	0.10025	"Pluralibacter"	0.00029
"Lm_Se_20_Lm1"	"Listeria"	0.79913	"Salmonella"	0.2001	"Bacillus"	0.00015
"Lm_Se_20_Lm2"	"Listeria"	0.79846	"Salmonella"	0.20032	"Bacillus"	0.00016
"Lm_Se_20_Lm3"	"Listeria"	0.79803	"Salmonella"	0.20091	"Bacillus"	0.00038
"Lm_Se_20_Lm4"	"Listeria"	0.79898	"Salmonella"	0.19967	"Escherichia"	0.00081
"Lm_Se_20_Lm5"	"Listeria"	0.79792	"Salmonella"	0.20036	"Escherichia"	0.00042
"Lm_Se_20_Lm6"	"Listeria"	0.79892	"Salmonella"	0.20002	"Escherichia"	0.00055
"Lm_Se_20_Lm7"	"Listeria"	0.7988	"Salmonella"	0.20056	"Bacillus"	0.00018
"Lm_Se_20_Lm8"	"Listeria"	0.7986	"Salmonella"	0.19961	"Pluralibacter"	0.00075
"Lm_Se_30_Lm1"	"Listeria"	0.69914	"Salmonella"	0.30009	"Bacillus"	0.00012
"Lm_Se_30_Lm2"	"Listeria"	0.69858	"Salmonella"	0.30022	"Citrobacter"	0.00019
"Lm_Se_30_Lm3"	"Listeria"	0.69806	"Salmonella"	0.30059	"Escherichia"	0.00037
"Lm_Se_30_Lm4"	"Listeria"	0.69895	"Salmonella"	0.29949	"Escherichia"	0.00111
"Lm_Se_30_Lm5"	"Listeria"	0.69779	"Salmonella"	0.30017	"Escherichia"	0.00062
"Lm_Se_30_Lm6"	"Listeria"	0.69906	"Salmonella"	0.29967	"Escherichia"	0.00081
"Lm_Se_30_Lm7"	"Listeria"	0.69858	"Salmonella"	0.30069	"Escherichia"	0.00019
"Lm_Se_30_Lm8"	"Listeria"	0.69865	"Salmonella"	0.29896	"Pluralibacter"	0.00108
"Lm_Se_40_Lm1"	"Listeria"	0.59932	"Salmonella"	0.39997	"Bacillus"	0.00012
"Lm_Se_40_Lm2"	"Listeria"	0.59873	"Salmonella"	0.39973	"Citrobacter"	0.00028
"Lm_Se_40_Lm3"	"Listeria"	0.59841	"Salmonella"	0.40065	"Bacillus"	0.00025
"Lm_Se_40_Lm4"	"Listeria"	0.59903	"Salmonella"	0.39952	"Escherichia"	0.00094
"Lm_Se_40_Lm5"	"Listeria"	0.59856	"Salmonella"	0.39911	"Escherichia"	0.00098
"Lm_Se_40_Lm6"	"Listeria"	0.59902	"Salmonella"	0.40027	"Escherichia"	0.00012
"Lm_Se_40_Lm7"	"Listeria"	0.59859	"Salmonella"	0.40055	"Escherichia"	0.00024
"Lm_Se_40_Lm8"	"Listeria"	0.5989	"Salmonella"	0.39833	"Pluralibacter"	0.00139
"Lm_Se_50_Lm1"	"Salmonella"	0.5002	"Listeria"	0.4991	"Escherichia"	0.00013
"Lm_Se_50_Lm2"	"Salmonella"	0.49929	"Listeria"	0.49887	"Citrobacter"	0.00039
"Lm_Se_50_Lm3"	"Salmonella"	0.50014	"Listeria"	0.49848	"Escherichia"	0.00042
"Lm_Se_50_Lm4"	"Listeria"	0.49901	"Salmonella"	0.49804	"Escherichia"	0.0024
"Lm_Se_50_Lm5"	"Listeria"	0.49879	"Salmonella"	0.49814	"Escherichia"	0.00127
"Lm_Se_50_Lm6"	"Salmonella"	0.50031	"Listeria"	0.49898	"Escherichia"	0.00017
"Lm_Se_50_Lm7"	"Salmonella"	0.50006	"Listeria"	0.49907	"Escherichia"	0.00034
"Lm_Se_50_Lm8"	"Listeria"	0.49897	"Salmonella"	0.49768	"Pluralibacter"	0.00172
"Lm_Self_0_Lm1"	"Listeria"	0.99923	"Bacillus"	0.00019	"Staphylococcus"	1e-04
"Lm_Self_0_Lm2"	"Listeria"	0.99912	"Bacillus"	0.00029	"Clostridioides"	0.00018
"Lm_Self_0_Lm3"	"Listeria"	0.99889	"Bacillus"	0.00048	"Streptococcus"	0.00017
"Lm_Self_0_Lm4"	"Listeria"	0.99954	"Bacillus"	0.00022	"Staphylococcus"	0.00011
"Lm_Self_0_Lm5"	"Listeria"	0.99922	"Bacillus"	0.00021	"Lactococcus"	8e-05
"Lm_Self_0_Lm6"	"Listeria"	0.99947	"Clostridioides"	0.00015	"Bacillus"	0.00012
"Lm_Self_0_Lm7"	"Listeria"	0.99946	"Bacillus"	0.00024	"Staphylococcus"	0.00011
"Lm_Self_0_Lm8"	"Listeria"	0.99943	"Bacillus"	0.00019	"Lactococcus"	5e-05
"Lm_Self_10_Lm1"	"Listeria"	0.99918	"Bacillus"	0.00023	"Lactococcus"	0.00011
"Lm_Self_10_Lm2"	"Listeria"	0.99926	"Bacillus"	0.00033	"Enterococcus"	9e-05
"Lm_Self_10_Lm3"	"Listeria"	0.99892	"Bacillus"	0.00047	"Streptococcus"	0.00018
"Lm_Self_10_Lm4"	"Listeria"	0.99954	"Bacillus"	0.00021	"Staphylococcus"	0.00012
"Lm_Self_10_Lm5"	"Listeria"	0.99919	"Bacillus"	0.00026	"Lactococcus"	8e-05
"Lm_Self_10_Lm6"	"Listeria"	0.99949	"Clostridioides"	0.00014	"Bacillus"	0.00012
"Lm_Self_10_Lm7"	"Listeria"	0.99952	"Bacillus"	0.00018	"Staphylococcus"	0.00011
"Lm_Self_10_Lm8"	"Listeria"	0.9994	"Bacillus"	0.00021	"Lactococcus"	7e-05
"Lm_Self_20_Lm1"	"Listeria"	0.99923	"Bacillus"	2e-04	"Staphylococcus"	1e-04
"Lm_Self_20_Lm2"	"Listeria"	0.99903	"Bacillus"	0.00034	"Clostridioides"	0.00018
"Lm_Self_20_Lm3"	"Listeria"	0.99883	"Bacillus"	0.00051	"Staphylococcus"	0.00015
"Lm_Self_20_Lm4"	"Listeria"	0.99957	"Bacillus"	0.00023	"Staphylococcus"	9e-05
"Lm_Self_20_Lm5"	"Listeria"	0.99922	"Bacillus"	0.00024	"Lactococcus"	1e-04
"Lm_Self_20_Lm6"	"Listeria"	0.99949	"Clostridioides"	0.00013	"Bacillus"	1e-04
"Lm_Self_20_Lm7"	"Listeria"	0.99938	"Bacillus"	0.00031	"Staphylococcus"	8e-05
"Lm_Self_20_Lm8"	"Listeria"	0.99939	"Bacillus"	0.00022	"Lactococcus"	6e-05
"Lm_Self_30_Lm1"	"Listeria"	0.99923	"Bacillus"	2e-04	"Staphylococcus"	9e-05
"Lm_Self_30_Lm2"	"Listeria"	0.99899	"Clostridioides"	0.00027	"Bacillus"	0.00025
"Lm_Self_30_Lm3"	"Listeria"	0.99892	"Bacillus"	0.00049	"Streptococcus"	0.00015
"Lm_Self_30_Lm4"	"Listeria"	0.99952	"Bacillus"	0.00025	"Staphylococcus"	0.00013
"Lm_Self_30_Lm5"	"Listeria"	0.9992	"Bacillus"	0.00022	"Lactococcus"	9e-05
"Lm_Self_30_Lm6"	"Listeria"	0.9995	"Clostridioides"	0.00015	"Bacillus"	1e-04
"Lm_Self_30_Lm7"	"Listeria"	0.99955	"Bacillus"	2e-04	"Staphylococcus"	4e-05
"Lm_Self_30_Lm8"	"Listeria"	0.99936	"Bacillus"	0.00025	"Enterococcus"	6e-05
"Lm_Self_40_Lm1"	"Listeria"	0.99918	"Bacillus"	0.00014	"Staphylococcus"	0.00014
"Lm_Self_40_Lm2"	"Listeria"	0.99883	"Bacillus"	0.00039	"Clostridioides"	0.00029
"Lm_Self_40_Lm3"	"Listeria"	0.99897	"Bacillus"	0.00043	"Streptococcus"	0.00018
"Lm_Self_40_Lm4"	"Listeria"	0.9995	"Bacillus"	0.00025	"Staphylococcus"	0.00013
"Lm_Self_40_Lm5"	"Listeria"	0.99917	"Bacillus"	0.00021	"Lactococcus"	0.00011
"Lm_Self_40_Lm6"	"Listeria"	0.99951	"Clostridioides"	0.00017	"Bacillus"	0.00012
"Lm_Self_40_Lm7"	"Listeria"	0.9995	"Bacillus"	0.00019	"Staphylococcus"	1e-04
"Lm_Self_40_Lm8"	"Listeria"	0.99942	"Bacillus"	0.00023	"Lactococcus"	7e-05
"Lm_Self_50_Lm1"	"Listeria"	0.99923	"Staphylococcus"	0.00014	"Bacillus"	0.00012
"Lm_Self_50_Lm2"	"Listeria"	0.9991	"Bacillus"	0.00026	"Clostridioides"	0.00019
"Lm_Self_50_Lm3"	"Listeria"	0.99883	"Bacillus"	0.00047	"Streptococcus"	2e-04
"Lm_Self_50_Lm4"	"Listeria"	0.99958	"Bacillus"	2e-04	"Staphylococcus"	9e-05
"Lm_Self_50_Lm5"	"Listeria"	0.99927	"Bacillus"	0.00021	"Lactococcus"	9e-05
"Lm_Self_50_Lm6"	"Listeria"	0.99948	"Clostridioides"	0.00014	"Bacillus"	0.00011
"Lm_Self_50_Lm7"	"Listeria"	0.99946	"Bacillus"	0.00021	"Staphylococcus"	0.00012
"Lm_Self_50_Lm8"	"Listeria"	0.99938	"Bacillus"	2e-04	"Lactococcus"	9e-05
