[shovill] Using bwa - /home/DenekeC/miniconda3/envs/aquamis_minimal/bin/bwa | Version: 0.7.17-r1188
[shovill] Using flash - /home/DenekeC/miniconda3/envs/aquamis_minimal/bin/flash | FLASH v1.2.11
[shovill] Using java - /home/DenekeC/miniconda3/envs/aquamis_minimal/bin/java | openjdk version "11.0.8-internal" 2020-07-14
[shovill] Using kmc - /home/DenekeC/miniconda3/envs/aquamis_minimal/bin/kmc | K-Mer Counter (KMC) ver. 3.1.0 (2018-05-10)
[shovill] Using lighter - /home/DenekeC/miniconda3/envs/aquamis_minimal/bin/lighter | Lighter v1.1.2
[shovill] Using megahit - /home/DenekeC/miniconda3/envs/aquamis_minimal/bin/megahit | MEGAHIT v1.2.9
[shovill] Using megahit_toolkit - /home/DenekeC/miniconda3/envs/aquamis_minimal/bin/megahit_toolkit | v1.2.9
[shovill] Using pigz - /home/DenekeC/miniconda3/envs/aquamis_minimal/bin/pigz | pigz 2.5
[shovill] Using pilon - /home/DenekeC/miniconda3/envs/aquamis_minimal/bin/pilon | Pilon version 1.23 Mon Nov 26 16:04:05 2018 -0500
[shovill] Using samclip - /home/DenekeC/miniconda3/envs/aquamis_minimal/bin/samclip | samclip 0.4.0
[shovill] Using samtools - /home/DenekeC/miniconda3/envs/aquamis_minimal/bin/samtools | Version: 1.11 (using htslib 1.11)
[shovill] Using seqtk - /home/DenekeC/miniconda3/envs/aquamis_minimal/bin/seqtk | Version: 1.3-r106
[shovill] Using skesa - /home/DenekeC/miniconda3/envs/aquamis_minimal/bin/skesa | SKESA 2.4.0
[shovill] Using spades.py - /home/DenekeC/miniconda3/envs/aquamis_minimal/bin/spades.py | SPAdes genome assembler v3.14.1
[shovill] Using trimmomatic - /home/DenekeC/miniconda3/envs/aquamis_minimal/bin/trimmomatic | 0.39
[shovill] Using velvetg - /home/DenekeC/miniconda3/envs/aquamis_minimal/bin/velvetg | Version 1.2.10
[shovill] Using velveth - /home/DenekeC/miniconda3/envs/aquamis_minimal/bin/velveth | Version 1.2.10
