Software	Version
fastp	0.20.1
ConFindr	0.7.4
Kraken	2.1.1
bracken	2.5
taxonkit	0.7.2
shovill	1.1.0
bwa	0.7.17-r1188
flash	1.2.11
java	11.0.8-internal
kmc	3.1.0
lighter	1.1.2
megahit	1.2.9
megahit_toolkit	1.2.9
pigz	2.5
pilon	1.23
samclip	0.4.0
samtools	1.11
seqtk	1.3-r106
skesa	2.4.0
spades	3.14.1
trimmomatic	0.39
velvetg	1.2.10
velveth	1.2.10
mash	2.2.2
QUAST	5.0.2
mlst	2.19.0
